Khaled_CSE2441-001/Instruction_Decoder/simulation/qsim/Instruction_Decoder.msim.vcd
$comment
	File created using the following command:
		vcd file Instruction_Decoder.msim.vcd -direction
$end
$date
	Tue Nov 17 13:47:37 2020
$end
$version
	ModelSim Version 10.1d
$end
$timescale
	1ps
$end
$scope module Instruction_Decoder_vlg_vec_tst $end
$var reg 1 ! w $end
$var reg 1 " x $end
$var reg 1 # y $end
$var reg 1 $ z $end
$var wire 1 % ADD $end
$var wire 1 & CLR $end
$var wire 1 ' HLT $end
$var wire 1 ( INC $end
$var wire 1 ) JMP $end
$var wire 1 * JPN $end
$var wire 1 + JPZ $end
$var wire 1 , LDA $end
$var wire 1 - SAT $end
$var wire 1 . SUB $end
$var wire 1 / XOR $end
$var wire 1 0 sampler $end
$scope module i1 $end
$var wire 1 1 gnd $end
$var wire 1 2 vcc $end
$var wire 1 3 unknown $end
$var tri1 1 4 devclrn $end
$var tri1 1 5 devpor $end
$var tri1 1 6 devoe $end
$var wire 1 7 w~combout $end
$var wire 1 8 x~combout $end
$var wire 1 9 z~combout $end
$var wire 1 : y~combout $end
$var wire 1 ; Decoder0~0_combout $end
$var wire 1 < Decoder0~1_combout $end
$var wire 1 = Decoder0~2_combout $end
$var wire 1 > Decoder0~3_combout $end
$var wire 1 ? Decoder0~4_combout $end
$var wire 1 @ Decoder0~5_combout $end
$var wire 1 A Decoder0~6_combout $end
$var wire 1 B Decoder0~7_combout $end
$var wire 1 C Decoder0~8_combout $end
$var wire 1 D Decoder0~9_combout $end
$var wire 1 E Decoder0~10_combout $end
$upscope $end
$upscope $end
$enddefinitions $end
#0
$dumpvars
0!
0"
0#
0$
0%
0&
0'
0(
0)
0*
0+
1,
0-
0.
0/
x0
01
12
x3
14
15
16
07
08
09
0:
0;
0<
0=
0>
0?
0@
0A
0B
0C
0D
1E
$end
#50000
1$
19
00
0E
1D
0,
1-
#100000
1#
0$
1:
09
10
0D
1C
0-
1%
#150000
1$
19
00
0C
1B
0%
1.
#200000
1"
0#
0$
18
0:
09
10
0B
1A
0.
1/
#250000
1$
19
00
0A
0/
#300000
1#
0$
1:
09
10
1@
1(
#350000
1$
19
00
0@
1?
0(
1&
#400000
1!
0"
0#
0$
17
08
0:
09
10
0?
1>
0&
1)
#450000
1$
19
00
0>
1<
0)
1*
#500000
1#
0$
1:
09
10
0<
0*
#550000
1$
19
00
#600000
1"
0#
0$
18
0:
09
10
1=
1+
#650000
1$
19
00
0=
0+
#700000
1#
0$
1:
09
10
#750000
1$
19
00
1;
1'
#800000
0!
0"
0#
0$
07
08
0:
09
10
1E
0;
1,
0'
#850000
1$
19
00
0E
1D
0,
1-
#900000
1#
0$
1:
09
10
0D
1C
0-
1%
#950000
1$
19
00
0C
1B
0%
1.
